lab4/booth_tb.vcd
$date
	Thu Sep 19 12:29:53 2024
$end
$version
	Icarus Verilog
$end
$timescale
	1ns
$end
$scope module booth_tb $end
$var wire 32 ! result [31:0] $end
$var wire 1 " irq $end
$var wire 1 # busy $end
$var reg 1 $ ack $end
$var reg 1 % clk $end
$var reg 16 & data_a [15:0] $end
$var reg 16 ' data_b [15:0] $end
$var reg 1 ( irq_enable $end
$var reg 1 ) resetn $end
$var reg 1 * start $end
$scope module uut $end
$var wire 1 $ ack $end
$var wire 1 % clk $end
$var wire 16 + data_a [15:0] $end
$var wire 16 , data_b [15:0] $end
$var wire 1 ( irq_enable $end
$var wire 1 ) resetn $end
$var wire 1 * start $end
$var reg 1 # busy $end
$var reg 1 " irq $end
$var reg 32 - partial_res [31:0] $end
$var reg 1 . prev $end
$var reg 16 / reg_a [15:0] $end
$var reg 16 0 reg_b [15:0] $end
$var reg 32 1 result [31:0] $end
$var reg 2 2 state [1:0] $end
$var reg 3 3 window [2:0] $end
$var reg 3 4 window_count [2:0] $end
$upscope $end
$scope task set_operands $end
$var reg 16 5 multiplicand [15:0] $end
$var reg 16 6 multiplier [15:0] $end
$upscope $end
$scope task wait_ack $end
$upscope $end
$upscope $end
$enddefinitions $end
$comment Show the parameter values. $end
$dumpall
$end
#0
$dumpvars
bx 6
bx 5
bx 4
bx 3
bx 2
bx 1
bx 0
bx /
x.
bx -
bx ,
bx +
0*
1)
0(
bx '
bx &
1%
0$
x#
x"
bx !
$end
#50
0)
#200
0%
#400
b0 2
b0 3
b0 4
0.
b0 -
b0 0
b0 /
b0 !
b0 1
0"
0#
1%
#410
b10000 6
b10 5
1)
#600
0%
#800
1%
#810
b10000 '
b10000 ,
b10 &
b10 +
1*
#1000
0%
#1200
b1 2
b10000 0
b10 /
1#
1%
#1210
0*
#1400
0%
#1600
b11 2
b1 4
b100 0
1%
#1800
0%
#2000
b1 2
b1000 /
1%
#2200
0%
#2400
b11 2
b10 4
b1 0
1%
#2600
0%
#2800
b1 2
b100000 /
b10 3
1%
#3000
0%
#3200
b11 2
b11 4
b0 0
b100000 -
1%
#3400
0%
#3600
b1 2
b10000000 /
b0 3
1%
#3800
0%
#4000
b11 2
b100 4
1%
#4200
0%
#4400
b1 2
b1000000000 /
1%
#4600
0%
#4800
b11 2
b101 4
1%
#5000
0%
#5200
b1 2
b100000000000 /
1%
#5400
0%
#5600
b11 2
b110 4
1%
#5800
0%
#6000
b1 2
b10000000000000 /
1%
#6200
0%
#6400
b11 2
b111 4
1%
#6600
0%
#6800
b1 2
b1000000000000000 /
1%
#7000
0%
#7200
b10 2
b0 4
b100000 !
b100000 1
1%
#7400
0%
#7600
b0 -
b0 2
0#
1%
#7800
0%
#8000
1%
#8010
1$
#8200
0%
#8400
1%
#8410
b1111111110000100 6
b1111111111111001 5
0$
#8600
0%
#8800
1%
#8810
b1111111110000100 '
b1111111110000100 ,
b1111111111111001 &
b1111111111111001 +
1*
#9000
0%
#9200
b1 2
b1111111110000100 0
b1111111111111001 /
1#
1%
#9210
0*
#9400
0%
#9600
b11 2
b1 4
b1111111111100001 0
1%
#9800
0%
#10000
b1 2
b1111111111100100 /
b10 3
1%
#10200
0%
#10400
b11 2
b10 4
b1111111111111000 0
b11111111111111111111111111100100 -
1%
#10600
0%
#10800
b1 2
b1111111110010000 /
b0 3
1%
#11000
0%
#11200
b11 2
b11 4
b1111111111111110 0
1%
#11400
0%
#11600
b1 2
b1111111001000000 /
b100 3
1%
#11800
0%
#12000
b11 2
b100 4
1.
b1111111111111111 0
b1101100100 -
1%
#12200
0%
#12400
b1 2
b1111100100000000 /
b111 3
1%
#12600
0%
#12800
b11 2
b101 4
1%
#13000
0%
#13200
b1 2
b1110010000000000 /
1%
#13400
0%
#13600
b11 2
b110 4
1%
#13800
0%
#14000
b1 2
b1001000000000000 /
1%
#14200
0%
#14400
b11 2
b111 4
1%
#14600
0%
#14800
b1 2
b100000000000000 /
1%
#15000
0%
#15200
b10 2
0.
b0 4
b1101100100 !
b1101100100 1
1%
#15400
0%
#15600
b0 -
b0 2
0#
1%
#15800
0%
#16000
1%
#16010
1$
#16200
0%
#16400
1%
#16410
b1111111111011011 6
b10010110 5
0$
#16600
0%
#16800
1%
#16810
b1111111111011011 '
b1111111111011011 ,
b10010110 &
b10010110 +
1*
#17000
0%
#17200
b1 2
b110 3
b1111111111011011 0
b10010110 /
1#
1%
#17210
0*
#17400
0%
#17600
b11 2
b1 4
1.
b1111111111110110 0
b11111111111111111111111101101010 -
1%
#17800
0%
#18000
b1 2
b1001011000 /
b101 3
1%
#18200
0%
#18400
b11 2
b10 4
b1111111111111101 0
b11111111111111111111110100010010 -
1%
#18600
0%
#18800
b1 2
b100101100000 /
b11 3
1%
#19000
0%
#19200
b11 2
b11 4
0.
b1111111111111111 0
b111111010010 -
1%
#19400
0%
#19600
b1 2
b10010110000000 /
b110 3
1%
#19800
0%
#20000
b11 2
b100 4
1.
b11111111111111111110101001010010 -
1%
#20200
0%
#20400
b1 2
b1001011000000000 /
b111 3
1%
#20600
0%
#20800
b11 2
b101 4
1%
#21000
0%
#21200
b1 2
b101100000000000 /
1%
#21400
0%
#21600
b11 2
b110 4
1%
#21800
0%
#22000
b1 2
b110000000000000 /
1%
#22200
0%
#22400
b11 2
b111 4
1%
#22600
0%
#22800
b1 2
b1000000000000000 /
1%
#23000
0%
#23200
b10 2
0.
b0 4
b11111111111111111110101001010010 !
b11111111111111111110101001010010 1
1%
#23400
0%
#23600
b0 -
b0 2
0#
1%
#23800
0%
#24000
1%
#24010
1$
#24200
0%
#24400
1%
#24410
b10 6
b1111110101100010 5
0$
#24600
0%
#24800
1%
#24810
b10 '
b10 ,
b1111110101100010 &
b1111110101100010 +
1*
#25000
0%
#25200
b1 2
b100 3
b10 0
b1111110101100010 /
1#
1%
#25210
0*
#25400
0%
#25600
b11 2
b1 4
1.
b0 0
b10100111100 -
1%
#25800
0%
#26000
b1 2
b1111010110001000 /
b1 3
1%
#26200
0%
#26400
b11 2
b10 4
0.
b11111111111111111111101011000100 -
1%
#26600
0%
#26800
b1 2
b1101011000100000 /
b0 3
1%
#27000
0%
#27200
b11 2
b11 4
1%
#27400
0%
#27600
b1 2
b101100010000000 /
1%
#27800
0%
#28000
b11 2
b100 4
1%
#28200
0%
#28400
b1 2
b110001000000000 /
1%
#28600
0%
#28800
b11 2
b101 4
1%
#29000
0%
#29200
b1 2
b1000100000000000 /
1%
#29400
0%
#29600
b11 2
b110 4
1%
#29800
0%
#30000
b1 2
b10000000000000 /
1%
#30200
0%
#30400
b11 2
b111 4
1%
#30600
0%
#30800
b1 2
b1000000000000000 /
1%
#31000
0%
#31200
b10 2
b0 4
b11111111111111111111101011000100 !
b11111111111111111111101011000100 1
1%
#31400
0%
#31600
b0 -
b0 2
0#
1%
#31800
0%
#32000
1%
#32010
1$
#32200
0%
#32400
1%
#32410
b1111111111111111 6
b1111111111111111 5
0$
#32600
0%
#32800
1%
#32810
b1111111111111111 '
b1111111111111111 ,
b1111111111111111 &
b1111111111111111 +
1*
#33000
0%
#33200
b1 2
b110 3
b1111111111111111 0
b1111111111111111 /
1#
1%
#33210
0*
#33400
0%
#33600
b11 2
b1 4
1.
b1 -
1%
#33800
0%
#34000
b1 2
b1111111111111100 /
b111 3
1%
#34200
0%
#34400
b11 2
b10 4
1%
#34600
0%
#34800
b1 2
b1111111111110000 /
1%
#35000
0%
#35200
b11 2
b11 4
1%
#35400
0%
#35600
b1 2
b1111111111000000 /
1%
#35800
0%
#36000
b11 2
b100 4
1%
#36200
0%
#36400
b1 2
b1111111100000000 /
1%
#36600
0%
#36800
b11 2
b101 4
1%
#37000
0%
#37200
b1 2
b1111110000000000 /
1%
#37400
0%
#37600
b11 2
b110 4
1%
#37800
0%
#38000
b1 2
b1111000000000000 /
1%
#38200
0%
#38400
b11 2
b111 4
1%
#38600
0%
#38800
b1 2
b1100000000000000 /
1%
#39000
0%
#39200
b10 2
0.
b0 4
b1 !
b1 1
1%
#39400
0%
#39600
b0 -
b0 2
0#
1%
#39800
0%
#40000
1%
#40010
1$
#40200
0%
#40400
1%
#40410
b111111111111111 6
b111111111111111 5
0$
#40600
0%
#40800
1%
#40810
b111111111111111 '
b111111111111111 ,
b111111111111111 &
b111111111111111 +
1*
#41000
0%
#41200
b1 2
b110 3
b111111111111111 0
b111111111111111 /
1#
1%
#41210
0*
#41400
0%
#41600
b11 2
b1 4
1.
b1111111111111 0
b11111111111111111000000000000001 -
1%
#41800
0%
#42000
b1 2
b1111111111111100 /
b111 3
1%
#42200
0%
#42400
b11 2
b10 4
b11111111111 0
1%
#42600
0%
#42800
b1 2
b1111111111110000 /
1%
#43000
0%
#43200
b11 2
b11 4
b111111111 0
1%
#43400
0%
#43600
b1 2
b1111111111000000 /
1%
#43800
0%
#44000
b11 2
b100 4
b1111111 0
1%
#44200
0%
#44400
b1 2
b1111111100000000 /
1%
#44600
0%
#44800
b11 2
b101 4
b11111 0
1%
#45000
0%
#45200
b1 2
b1111110000000000 /
1%
#45400
0%
#45600
b11 2
b110 4
b111 0
1%
#45800
0%
#46000
b1 2
b1111000000000000 /
1%
#46200
0%
#46400
b11 2
b111 4
b1 0
1%
#46600
0%
#46800
b1 2
b1100000000000000 /
b11 3
1%
#47000
0%
#47200
b10 2
0.
b0 4
b11111111111111111000000000000001 !
b11111111111111111000000000000001 1
b11111111111111110000000000000001 -
1%
#47400
0%
#47600
b0 -
b0 2
0#
1%
#47800
0%
#48000
1%
#48010
1$
#48200
0%
#48400
1%
#48410
b1000000000000000 6
b1000000000000000 5
0$
#48600
0%
#48800
1%
#48810
b1000000000000000 '
b1000000000000000 ,
b1000000000000000 &
b1000000000000000 +
1*
#49000
0%
#49200
b1 2
b0 3
b1000000000000000 0
b1000000000000000 /
1#
1%
#49210
0*
#49400
0%
#49600
b11 2
b1 4
b1110000000000000 0
1%
#49800
0%
#50000
b1 2
b0 /
1%
#50200
0%
#50400
b11 2
b10 4
b1111100000000000 0
1%
#50600
0%
#50800
b1 2
1%
#51000
0%
#51200
b11 2
b11 4
b1111111000000000 0
1%
#51400
0%
#51600
b1 2
1%
#51800
0%
#52000
b11 2
b100 4
b1111111110000000 0
1%
#52200
0%
#52400
b1 2
1%
#52600
0%
#52800
b11 2
b101 4
b1111111111100000 0
1%
#53000
0%
#53200
b1 2
1%
#53400
0%
#53600
b11 2
b110 4
b1111111111111000 0
1%
#53800
0%
#54000
b1 2
1%
#54200
0%
#54400
b11 2
b111 4
b1111111111111110 0
1%
#54600
0%
#54800
b1 2
b100 3
1%
#55000
0%
#55200
b10 2
b0 4
b0 !
b0 1
1%
#55400
0%
#55600
b0 2
0#
1%
#55800
0%
#56000
1%
#56010
1$
#56200
0%
#56400
1%
#56410
0$
